"EDIT","PICID","PICNAME","EXTNAME","MEMBERID","PICSIZE","PICTYPE"
"
","70","pic1.jpg","jpg","6","5978","image/jpeg"
"
","78","Chrysanthemum.jpg","jpg","15","879394","image/jpeg"
"
","18","Penguins.jpg","jpg","1","777835","image/jpeg"
"
","76","IMG-20130322-WA0006.jpg","jpg","15","30437","image/jpeg"
"
","81","1FACE.GIF","GIF","12","14620","image/gif"
"
","26","beautiful_mobilephone_flowers_wallpapers_14-t2.jpg","jpg","1","18195","image/jpeg"
"
","15","Koala.jpg","jpg","2","780831","image/jpeg"
"
","12","1.jpg","jpg","2","75068","image/jpeg"
"
","43","bumblebee_in_transformers_4_age_of_extinction-wide.jpg","jpg","12","4683148","image/jpeg"
"
","79","Koala.jpg","jpg","15","780831","image/jpeg"
"
","36","155d09602221ae87ae72bcbdb9c4b5e6.jpg","jpg","6","30360","image/jpeg"
"
","40","5.JPG","JPG","11","14540","image/jpeg"
